[    
    { "name": "Hugo tips", "url": "hugo"},
    { "name": "Links", "url": "#",
        "childrens": [            
            { "name": "Free ebooks", "url" : "https://smtebooks.us/", "childrens": []},
            { "name": "Shared Data", "url" : "https://behappyisenough.wordpress.com/2018/05/21/sharing-ebooks-and-free-tools/", "childrens": []},
            { "name": "Online Regex", "url": "https://regex101.com/", "childrens": [] },
            { "name": "Bash Online", "url": "http://www.bashoneliners.com/", "childrens": [] },
            { "name": "Unix Timestamp Conversion", "url": "https://www.epochconverter.com/", "childrens": [] },
            { "name": "Bash Scripting", "url": "https://ryanstutorials.net/bash-scripting-tutorial/", "childrens": [] },
            { "name": "Explain Shell", "url": "https://explainshell.com/", "childrens": [] }            
        ] 
    }
]